Total by Day for 1/1/2007  	4  	$6.80
Total by Day for 1/2/2007 	1 	$1.40
Total by Day for 1/3/2007 	6 	$11.70
Total by Day for 1/4/2007 	14 	$30.80
Total by Day for 1/5/2007 	3 	$6.40
Total by Day for 1/6/2007 	2 	$2.80
Total by Day for 1/7/2007 	4 	$7.20
Total by Day for 1/8/2007 	3 	$5.00
Total by Day for 1/9/2007 	8 	$12.50
Total by Day for 1/10/2007 	6 	$11.10
Total by Day for 1/11/2007 	5 	$9.70
Total by Day for 1/12/2007 	5 	$8.20
Total by Day for 1/13/2007 	1 	$1.40
Total by Day for 1/14/2007 	1 	$1.90
Total by Day for 1/15/2007 	6 	$13.90
Total by Day for 1/16/2007 	9 	$20.10
Total by Day for 1/17/2007 	4 	$6.80
Total by Day for 1/18/2007 	11 	$23.70
Total by Day for 1/19/2007 	6 	$12.70
Total by Day for 1/20/2007 	6 	$14.00
Total by Day for 1/21/2007 	11 	$26.10
Total by Day for 1/22/2007 	18 	$41.80
Total by Day for 1/23/2007 	15 	$34.50
Total by Day for 1/24/2007 	10 	$20.60
Total by Day for 1/25/2007 	10 	$21.80
Total by Day for 1/26/2007 	19 	$43.30
Total by Day for 1/27/2007 	9 	$20.40
Total by Day for 1/28/2007 	11 	$24.30
Total by Day for 1/29/2007 	19 	$43.70
Total by Day for 1/30/2007 	18 	$39.50
Total by Day for 1/31/2007 	9 	$19.70
Total by Day for 2/1/2007 	7 	$14.90
Total by Day for 2/2/2007 	9 	$17.40
Total by Day for 2/3/2007 	5 	$8.60
Total by Day for 2/4/2007 	7 	$12.00
Total by Day for 2/5/2007 	10 	$18.50
Total by Day for 2/6/2007 	5 	$10.30
Total by Day for 2/7/2007 	8 	$15.60
Total by Day for 2/8/2007 	8 	$17.00
Total by Day for 2/9/2007 	5 	$8.80
Total by Day for 2/10/2007 	12 	$28.40
Total by Day for 2/11/2007 	8 	$17.20
Total by Day for 2/12/2007 	12 	$26.70
Total by Day for 2/13/2007 	21 	$42.40
Total by Day for 2/14/2007 	21 	$46.30
Total by Day for 2/15/2007 	17 	$35.40