Quote ID	Name	Email	Phone	Date Received	Info	Source
1849974	 	msunballet@aol.com		03/15/2010 14:37	Est. Move Date: 2010-08-15<br/>Origin: Gainesville, FL 32606Destination: Palo Alto, CA 94301<br/>	pm_cs
1849976	 	asutto7@lsu.edu		03/15/2010 15:07	Est. Move Date: 2010-06-01<br/>Origin: Baton Rouge, LA 70808Destination: Nashville, TN 37201<br/>	tm
1849978	 	debbiecummings@hotmail.com		03/15/2010 15:17	Est. Move Date: 2010-04-15<br/>Origin: Toccoa, GA 30577Destination: Oak Grove, LA 71263<br/>	tm
1849980	 	teddyrt@yahoo.com		03/15/2010 15:27	Est. Move Date: 2010-04-03<br/>Origin: Dunmore, PA 18510Destination: Clermont, FL 34711<br/>	tm_cmoves
1849982	 	vickiwhiteman@charter.net		03/15/2010 15:37	Est. Move Date: 2010-03-30<br/>Origin: Roswell, GA 30075Destination: Coatesville, PA 19320<br/>	pm
1849985	 	deborahjmclean@yahoo.com		03/15/2010 15:57	Est. Move Date: 2010-03-25<br/>Origin: Nichols Hills, OK 73116Destination: New Iberia, LA 70560<br/>	usamoving
1849990	 	volciepaul@juno.com		03/15/2010 16:07	Est. Move Date: 2010-05-27<br/>Origin: Miami, FL 33010Destination: Indianapolis, IN 46201<br/>	aff_eleads
1849991	 	juniper143@yahoo.com		03/15/2010 16:07	Est. Move Date: 2010-03-20<br/>Origin: Portsmouth, VA 23704Destination: Portland, OR 97201<br/>	pm
1849992	 	titoceli1@yahoo.com		03/15/2010 16:07	Est. Move Date: 2010-04-30<br/>Origin: Coconut Grove, FL 33133Destination: Seattle, WA 98101<br/>	usamoving
1849993	 	bubberjack@yahoo.com		03/15/2010 16:07	Est. Move Date: 2010-07-01<br/>Origin: Lionshead Lake, NJ 07470Destination: Boca Raton, FL 33427<br/>	tm
1849994	 	gabdejesus@gmail.com		03/15/2010 16:27	Est. Move Date: 2010-05-25<br/>Origin: Alt De Juncos, PR 00612Destination: Palatine, IL 60038<br/>	pm_cs
1849995	 	brenner7@fullservicenetwork.net		03/15/2010 16:37	Est. Move Date: 2010-04-25<br/>Origin: Crafton, PA 15205Destination: Anchorage, AK 99501<br/>	tm
1849996	 	aliwoodland@yahoo.com		03/15/2010 16:47	Est. Move Date: 2010-04-30<br/>Origin: Woodland Hills, CA 91367Destination: Altamonte, FL 32701<br/>	pm_cq_google
1850003	 	the4thsonbook@sbcglobal.net		03/15/2010 17:47	Est. Move Date: 2010-04-02<br/>Origin: Roswell, GA 30075Destination: Detroit, MI 48201<br/>	usamoving
1850004	 	pats1sox1@comcast.net		03/15/2010 18:07	Est. Move Date: 2010-03-16<br/>Origin: Colorado Springs, CO 80923Destination: Amarillo, TX 79101<br/>	pm
1850005	 	estesshan@yahoo.com		03/15/2010 18:17	Est. Move Date: 2010-06-01<br/>Origin: Ormond Beach, FL 32176Destination: Redding, CA 96003<br/>	aff_atdepot
1850009	 	jimoregon@hotmail.com		03/15/2010 18:47	Est. Move Date: 2010-05-15<br/>Origin: Garden Home, OR 97223Destination: Annandale, VA 22003<br/>	usamoving
1850011	 	pastorbuz@gmail.com		03/15/2010 18:57	Est. Move Date: 2010-05-15<br/>Origin: Claiborne, LA 70433Destination: Jerome, ID 83338<br/>	tm
1850012	 	tamara.beck@yahoo.com		03/15/2010 19:07	Est. Move Date: 2010-08-15<br/>Origin: Box Church, TX 76642Destination: London, AR 72847<br/>	usamoving
1850017	 	michael@telepayroll.com		03/15/2010 19:37	Est. Move Date: 2010-05-17<br/>Origin: Tucson, AZ 85712Destination: Dana Point, CA 92624<br/>	pm
1850018	 	caryandsue1989@msn.com		03/15/2010 19:47	Est. Move Date: 2010-06-01<br/>Origin: Weatherly, PA 18255Destination: Kaufman, TX 75142<br/>	tm
1850019	 	falconfreak2005@yahoo.com		03/15/2010 20:17	Est. Move Date: 2010-07-27<br/>Origin: Merced, CA 95340Destination: Lino Lakes, MN 55014<br/>	usamoving
1850022	 	casjo396@msn.com		03/15/2010 20:37	Est. Move Date: 2010-03-25<br/>Origin: Hazle Township, PA 18201Destination: Denver, CO 80002<br/>	tm_cmoves
1850024	 	darrell@honucrete.com		03/15/2010 21:37	Est. Move Date: 2010-05-28<br/>Origin: Phoenix, AZ 85001Destination: Honolulu, HI 96801<br/>	aff_eleads
1850029	 	apb912@aol.com		03/15/2010 23:47	Est. Move Date: 2010-03-25<br/>Origin: Bedford Corners, NY 10549Destination: New Port Richey, FL 34652<br/>	usamoving
1850032	 	enahospitality@gmail.com		03/16/2010 03:17	Est. Move Date: 2010-04-19<br/>Origin: Pasco, WA 99301Destination: Houston, TX 77001<br/>	usamoving
1850033	 	charlesrlively@verizon.net		03/16/2010 03:27	Est. Move Date: 2010-04-08<br/>Origin: Marshfield, MA 02050Destination: Little Rock, AR 72201<br/>	tm_cmoves
1850035	 	lisa6389@aol.com		03/16/2010 07:07	Est. Move Date: 2010-05-16<br/>Origin: Bardwell, OH 45154Destination: Selma, AL 36701<br/>	tm
1850037	 	masquemea@hotmail.com		03/16/2010 07:47	Est. Move Date: 2010-06-12<br/>Origin: East Windsor, CT 06016Destination: Phoenix, AZ 85001<br/>	usamoving
1850043	 	bojiamy@yahoo.com		03/16/2010 09:27	Est. Move Date: 2010-07-01<br/>Origin: Albany, NY 12201Destination: Austin, TX 73301<br/>	aff_eleads
1850044	 	sndrdenise@yahoo.com		03/16/2010 09:27	Est. Move Date: 2010-06-01<br/>Origin: Alpharetta, GA 30022Destination: Boston, MA 02101<br/>	tm
1850047	 	sharondehaan@sbcglobal.net		03/16/2010 09:47	Est. Move Date: 2010-04-30<br/>Origin: Upper Sandusky, OH 43351Destination: Fort Lauderdale, FL 33301<br/>	pm
1850048	 	marco_reyes2000@hotmail.com		03/16/2010 09:57	Est. Move Date: 2010-03-20<br/>Origin: Fort Lauderdale, FL 33309Destination: Avondale, MD 20781<br/>	aff_move_glasgow
1850049	 	christinaylau@gmail.com		03/16/2010 10:07	Est. Move Date: 2010-03-23<br/>Origin: Denver, CO 80202Destination: San Francisco, CA 94101<br/>	aff_aaauto
1850050	 	rubycole28@yahoo.com		03/16/2010 10:07	Est. Move Date: 2010-05-01<br/>Origin: Scottsdale, AZ 85251Destination: Chesterfield, VA 23832<br/>	aff_aaauto
1850054	 	robclemons@gmail.com		03/16/2010 10:27	Est. Move Date: 2010-03-17<br/>Origin: Goose Creek, SC 29445Destination: Colorado Springs, CO 80901<br/>	aff_eleads
1850056	 	boyerfrances@ymail.com		03/16/2010 10:27	Est. Move Date: 2010-03-25<br/>Origin: Newark, NJ 07101Destination: Memorial Square, GA 30083<br/>	aff_eleads
1850058	 	johnkhiem@hotmail.com		03/16/2010 10:27	Est. Move Date: 2010-04-19<br/>Origin: Reston, VA 20190Destination: Westminster, CA 92683<br/>	aff_eleads
1850060	 	ronin12847@ymail.com		03/16/2010 10:27	Est. Move Date: 2010-03-31<br/>Origin: Honolulu, HI 96801Destination: Big Bear, CA 92315<br/>	aff_eleads
1850062	 	cpalmi@aol.com		03/16/2010 11:07	Est. Move Date: 2010-04-14<br/>Origin: Naples, FL 34110Destination: Parsippany, NJ 07054<br/>	tm
1850063	 	rdale8209@aol.com		03/16/2010 11:27	Est. Move Date: 2010-03-31<br/>Origin: Chaffee Village, TX 76544Destination: Dagsboro, DE 19939<br/>	tm_cmoves
1850064	 	mafouz@gmail.com		03/16/2010 11:37	Est. Move Date: 2010-06-13<br/>Origin: Durham, NC 27701Destination: Seattle, WA 98101<br/>	usamoving
1850066	 	lamonikamarie@yahoo.com		03/16/2010 11:37	Est. Move Date: 2010-04-01<br/>Origin: Camden, NJ 08101Destination: Cincinnati, OH 45201<br/>	usamoving
1850070	 	nzahedi@yahoo.com		03/16/2010 11:47	Est. Move Date: 2010-04-15<br/>Origin: Gaithersburg, MD 20877Destination: McLean, VA 22101<br/>	usamoving
1850073	 	katyjarcher@gmail.com		03/16/2010 12:07	Est. Move Date: 2010-04-07<br/>Origin: Charleston, WV 25301Destination: Plymouth, MN 55441<br/>	usamoving
1850074	 	entrepreneur73@gmail.com		03/16/2010 12:17	Est. Move Date: 2010-03-31<br/>Origin: Riverbank, CA 95367Destination: Hilo, HI 96720<br/>	pm_cq_google
1850076	 	frankscarpulla@adelphia.net		03/16/2010 12:27	Est. Move Date: 2010-03-25<br/>Origin: Newport Beach, CA 92663Destination: Howard Beach, NY 11414<br/>	pm_cs
1850079	 	rsanchez430@gmail.com		03/16/2010 12:47	Est. Move Date: 2010-04-01<br/>Origin: Fort Lauderdale, FL 33327Destination: Revere, MA 02151<br/>	pm_cq_google
1850080	 	cnmt.mike@yahoo.com		03/16/2010 12:47	Est. Move Date: 2010-03-31<br/>Origin: Beach Center, CA 92648Destination: Tampa, FL 33601<br/>	pm_search_yahoo
1850083	 	tinamae1001@aol.com		03/16/2010 12:57	Est. Move Date: 2009-04-30<br/>Origin: Maple Grove, MN 55369Destination: Branson, MO <br/>	pm_boxdev
1850086	 	austin.pamela@ymail.com		03/16/2010 13:37	Est. Move Date: 2010-05-10<br/>Origin: Moreno Valley, CA 92553Destination: Garland, TX 75040<br/>	aff_atdepot
1850088	 	ifhamsi@yahoo.com		03/16/2010 13:57	Est. Move Date: 2010-04-25<br/>Origin: Las Vegas, NV 89119Destination: Dallas, TX 75247<br/>	aff_atdepot
1850090	 	vjmtlm@msn.com		03/16/2010 13:57	Est. Move Date: 2010-07-07<br/>Origin: Ogden Dunes, IN 46368Destination: Marco Island, FL 34145<br/>	tm
1850093	 	britanib2002@aol.com		03/16/2010 14:17	Est. Move Date: 2010-03-31<br/>Origin: Stafford, TX 77477Destination: Las Vegas, NV 89101<br/>	pm
1850094	 	brittanybedner@yahoo.com		03/16/2010 14:17	Est. Move Date: 2010-03-31<br/>Origin: Stafford, TX 77477Destination: Las Vegas, NV 89101<br/>	pm
1850095	 	menichols3718@yahoo.com		03/16/2010 14:27	Est. Move Date: 2010-08-16<br/>Origin: Oshkosh, WI 54902Destination: Whitney Point, NY 13862<br/>	tm
1850096	 	connir@graceintullahoma.com		03/16/2010 14:27	Est. Move Date: 2010-06-30<br/>Origin: Dawsonville, GA 30534Destination: Tullahoma, TN 37388<br/>	usamoving
1850097	 	brettew@gmail.com		03/16/2010 14:37	Est. Move Date: 2010-07-09<br/>Origin: Washington, DC 20016Destination: Dallas, TX 75201<br/>	tm_cmoves
1850098	 	sreinertsen6909@yahoo.com		03/16/2010 15:17	Est. Move Date: 2010-07-16<br/>Origin: Syracuse, NY 13203Destination: Desert Center, CA 92239<br/>	aff_atdepot
1850100	 	clairemorissette@hotmail.com		03/16/2010 15:17	Est. Move Date: 2010-03-31<br/>Origin: Santa Clarita, CA 91355Destination: Charlotte, NC 28201<br/>	pm
1850101	 	frog4dee@hotmail.com		03/16/2010 15:27	Est. Move Date: 2010-06-15<br/>Origin: Las Vegas, NV 89101Destination: Clearwater, FL 33755<br/>	usamoving
1850103	 	augie62@aol.com		03/16/2010 15:37	Est. Move Date: 2010-07-01<br/>Origin: Echo Park, CA 90026Destination: Durango, CO 81301<br/>	aff_aaauto
1850104	 	parmit.kang@gmail.com		03/16/2010 15:37	Est. Move Date: 2010-07-06<br/>Origin: Calabasas, CA 91302Destination: New York, NY 10001<br/>	aff_aaauto
1850105	 	reggiedixon@gmail.com		03/16/2010 15:37	Est. Move Date: 2010-03-20<br/>Origin: Crabtree Valley, NC 27612Destination: Las Vegas, NV 89101<br/>	aff_atdepot
