Received,Name,EMail,Phone,Contact,MoveDate,OriginCity,OriginState,OriginZip,DestinationCity,DestinationState,Comments
20030804153000,Melissa Dye,melkissa2004@hotmail.com,9046145063,email,2003-08-09,La Mesa,CA,91941,Green Cove Springs,FL,Vehicle Type: Car
Vehicle Year: 1995
Vehicle Make: eagle
Vehicle Model: talon

Comments: 
20030804152001,Sesha Mudumbi,mseshas@hotmail.com,7323220966,email,2003-08-15,Galveston,TX,77551,Edison,NJ,Vehicle Type: Car
Vehicle Year: 1999
Vehicle Make: Lexus
Vehicle Model: ES300

Comments: 
20030804152001,Paula Sano,xopaulie24ox@cs.com,9544838682,email,2003-08-06,Beverly Hills,CA,90211,Fort Lauderdale,FL,Vehicle Type: Car
Vehicle Year: 2003
Vehicle Make: Volkswagen
Vehicle Model: Jetta

Comments: new
20030804150000,Brett Benjamin,bbenjam@tulane.edu,9134856994,email,2003-08-15,San Francisco,CA,94123,New Orleans,LA,Vehicle Type: Car
Vehicle Year: 2003
Vehicle Make: BMW
Vehicle Model: 325 CI

Comments: 
20030804145000,Ali,ucauto@sbcglobal.net,2173441940,email,2003-08-07,Urbana,IL,61801,Sterling,VA,Vehicle Type: Van
Vehicle Year: 1996
Vehicle Make: Ford
Vehicle Model: E250

Comments: 
20030804145000,Luanne Mullin,lmullin@fm.ucsf.edu,4155141426,email,2003-08-12,Mill Valley,CA,94941,Mill Valley,CA,Vehicle Type: Car
Vehicle Year: 1996
Vehicle Make: Infiniti
Vehicle Model: G 20

Comments: 
20030804145000,Lynette Rizzo,lynetter2003@aol.com,6318342768,email,2003-09-03,Belle Terre,NY,11777,Spring Hill,FL,Vehicle Type: Sport Utility
Vehicle Year: 1999
Vehicle Make: Suzuki
Vehicle Model: Grand Vitarra

Comments: 
20030804145000,Luanne Mullin,lmullin@fm.ucsf.edu,4155141426,email,2003-08-12,Mill Valley,CA,94941,Madison,WI,Vehicle Type: Car
Vehicle Year: 1996
Vehicle Make: Infiniti
Vehicle Model: G20

Comments: 
20030804144000,Justin Zylick,jzylick@hotmail.com,,email,2003-08-20,Albany,NY,12208,Miami,FL,Vehicle Type: Car
Vehicle Year: 2001
Vehicle Make: Mercedes
Vehicle Model: c240

Comments: 
20030804144000,Sarah Lamere,sahlamere@yahoo.com,6078445611,email,2003-09-10,Freeville,NY,13068,San Diego,CA,Vehicle Type: Car
Vehicle Year: 1999
Vehicle Make: Acura
Vehicle Model: Integra

Comments: 
20030804144000,Ven Anna,fulmontie@yahoo.com,5182221301,email,2003-08-30,Albany,NY,12204,Niskayuna,NY,Vehicle Type: Other
Vehicle Year: 1997
Vehicle Make: Chrysler
Vehicle Model: Wrangler

Comments: 
20030804143001,Christopher Cordova,villagewolf4@yahoo.com,4158228749,email,2003-08-09,Humble,TX,77339,San Francisco,CA,Vehicle Type: Sport Utility
Vehicle Year: 1999
Vehicle Make: Isuzu
Vehicle Model: Trooper

Comments: 
20030804143001,Tim Walsh,womblywombat@hotmail.com,12183889451,email,2003-08-13,District Heights,MD,20747,Minneapolis,MN,Vehicle Type: Sport Utility
Vehicle Year: 1997
Vehicle Make: Honda
Vehicle Model: Prelude

Comments: 
20030804143001,Greg Stingley,greg@cepsupply.com,19373823804,email,2003-09-20,Hooper,UT,84401,Wilmington,OH,Vehicle Type: Pick-up Truck
Vehicle Year: 1996
Vehicle Make: DODGE
Vehicle Model: RAM 2500

Comments: 
20030804140001,Andrew Daros,adaros@aol.com,7183391118,email,2003-10-01,Brooklyn,NY,11229,Phoenix,AZ,Vehicle Type: Sport Utility
Vehicle Year: 1998
Vehicle Make: Ford
Vehicle Model: Explorer

Comments: 
20030804140001,Julia Snow,snowjule@hotmail.com,3603928453,email,2003-09-30,Birch Bay,WA,98230,Birch Bay,WA,Vehicle Type: Car
Vehicle Year: 1993
Vehicle Make: Mazda
Vehicle Model: Protege

Comments: Do I need to present the title on pick up or delivery?  What paperwork will I need to have present?
20030804135000,Dana,dana.griffith@mcchord.af.mil,2535811439,email,2003-10-01,Lakewood,WA,98439,Escanaba,MI,Vehicle Type: Car
Vehicle Year: 1997
Vehicle Make: Chevrolet
Vehicle Model: Cavalier

Comments: I could also have it delivered to Green Bay Wisconsin
20030804134000,Maureen Woodward,moewoodward@aol.com,4018470098,email,2003-08-30,Middletown,RI,02840,33480,FL,Vehicle Type: Car
Vehicle Year: 2002
Vehicle Make: cadillac
Vehicle Model: dts

Comments: 
20030804134000,Jeanette Lewis,jeanette_lewis43@yahoo.com,,email,2003-08-12,Fleetwood,NY,10552,Seattle,WA,Vehicle Type: Car
Vehicle Year: 1997
Vehicle Make: Honda
Vehicle Model: CRV

Comments: 
20030804134000,Hilary Hansen,hils1924@aol.com,6153050567,email,2003-08-23,Green Oaks,IL,60045,Nashville,TN,Vehicle Type: Car
Vehicle Year: 2001
Vehicle Make: VOLKSWAGON
Vehicle Model: JETTA

Comments: 
20030804133001,Tw Hatem,twh8m@aol.com,6038981094,email,2003-08-20,Arlington,VA,22205,Salem,NH,Vehicle Type: Car
Vehicle Year: 1996
Vehicle Make: Porsche
Vehicle Model: Speedster

Comments: 
20030804133001,Andrew Jeffery,abjr5@yahoo.com,6175226547,email,2003-09-03,Keene,NH,03431,Brookline,MA,Vehicle Type: Convertible
Vehicle Year: 1979
Vehicle Make: MG
Vehicle Model: Midget

Comments: Car does not run but  steers and has brakes
20030804132000,Barry Berkoff,bbosco2020@aol.com,5167756200,email,2003-10-26,East Atlantic Beach,NY,11561,Florida,FL,Vehicle Type: Car
Vehicle Year: 2001
Vehicle Make: NISSIN
Vehicle Model: MAXIA

Comments: 
20030804131000,Barry Berkoff,bbosco2020@a0l.com,5167756200,email,2003-10-26,East Atlantic Beach,NY,11561,Long Beach,NY,Vehicle Type: Car
Vehicle Year: 2001
Vehicle Make: nissin
Vehicle Model: maxia

Comments: 
20030804130001,Erin Mccormick,emc030@aol.com,8563100965,email,2003-09-12,Audubon,NJ,08106,Los Angeles,CA,Vehicle Type: Pick-up Truck
Vehicle Year: 2001
Vehicle Make: Ford
Vehicle Model: Explorer Sport Trac

Comments: 
20030804124000,Logan Blackburn,soulman2010@yahoo.com,5182651478,email,2003-08-11,Perkins,OK,74059,Kinderhook,NY,Vehicle Type: Car
Vehicle Year: 1976
Vehicle Make: Datsun
Vehicle Model: 280Z

Comments: 
20030804122000,Harry Curry,budweiserbeloit@charter.net,6083646340,email,2003-08-18,Beloit,WI,53511,Clayton,CA,Vehicle Type: Pick-up Truck
Vehicle Year: 2002
Vehicle Make: Chevrolet
Vehicle Model: Avalanche

Comments: I am a car dealer I am checking quotes for cars won on e-bay.
20030804122000,Kirk Gaskell,gaskellmachine@rainbowtel.net,7854862674,email,2003-08-06,Sun,AZ,85716,Horton,KS,Vehicle Type: Car
Vehicle Year: 1998
Vehicle Make: Dodge
Vehicle Model: Avenger

Comments: 
20030804121000,B Edgington,popflys@hotmail.com,3193513488,email,2003-10-03,Long Beach,CA,90801,Honolulu,HI,Vehicle Type: Car
Vehicle Year: 96
Vehicle Make: Honda
Vehicle Model: Accord

Comments: 
20030804121000,Carl Welander,cwelander@yahoo.com,,email,2003-08-03,Fallbrook,CA,92028,Bend,OR,Vehicle Type: Car
Vehicle Year: 1988
Vehicle Make: BMW
Vehicle Model: 635

Comments: 
