Quote ID	Name	Email	Phone	Quote Type	Date Received	Address	City	State Code	Zip	Comments	Source
75096	Helen Panagiotopoulos	helen_pana@hotmail.com	0395000883	Residential	05/23/2008 22:25	30 Railway Avenue	Armadale	VI	3143	New System House Up to 1,499 ft	atac_google
75128	Nathan Van Dyk	njvandyk@virginbroadband.com.au	0738186580	Residential	05/24/2008 03:15	Deborah Dr	Collingwood Park	QL	4301	New System House 1,500 - 2,999 ft	atac_google
75138	Matt Cowling	matt.cowling@exemail.com.au	0414628545	Residential	05/24/2008 05:35	35 Corunna Crescent	Blackbutt	NS	2529	New System House 1,500 - 2,999 ft	atac_google
71545	Bmfashion Brett Zeuschner	brettzeuschner@optusnet.com.au	0413881696	Commercial	05/05/2008 14:10	18 Baily Street	Mount Waverley	VI	3149	New System Warehouse Up to 2,499 ft	atac_google
71546	Mandys Furniture Joe Howe	hz39@hotmail.com	0417123666	Commercial	05/05/2008 14:10	Po Box 889	Maroubra	NS	2035	New System Warehouse 5,000 - 9,999 ft	atac_google
71605	Sam Senanayake	sambo19@bigpond.net.au	0410410351	Residential	05/05/2008 14:10	12 Rutherglen Pl	Bidwill	NS	2770	New System House Up to 1,499 ft	atac_google
71613	Raj Moonsammy	rmoonsammy@megtec.com.au	0400687755	Residential	05/05/2008 14:10	27 Campbell Street Glen Waverley	Brandon Park	VI	3150	Upgrade Current System Town House 1,500 - 2,999 ft	atac_google
71823	David Moulden	alicmm@bigpond.com.au	0394499009	Residential	05/05/2008 19:15	27 Saronvale Cresent Hillside	Delahey	VI	3037	New System House 1,500 - 2,999 ft	atac_google
71826	Creche And Kindergar Jenny Lewis	valley@candk.asn.au	0738521288	Commercial	05/05/2008 19:35	29 Robertson St	Bowen Hills	QL	4006	Replace Current System Other 10,000 - 49,999 ft	atac_google
71856	Glen Erskine	glen_erskine@yahoo.com	0406040446	Residential	05/06/2008 00:15	4 Firmin St Paralowie	Paralowie	SA	5108	New System House Up to 1,499 ft	atac_google
71876	Freda Elder	freda1001@hotmail.com	0408025004	Residential	05/06/2008 03:35	34 Murphy Avenue	Casula	NS	2170	Replace Current System House 1,500 - 2,999 ft	atac_google
72004	Grant Cowan	gcowan@mitre10.com.au	0411680307	Residential	05/06/2008 17:55	Po Box 5182	Hughesdale	VI	3166	New System House Up to 1,499 ft	atac_google
72030	Christine Sinclair	motherearth@iprimus.com.au	0411604753	Residential	05/06/2008 20:35	P.o. Box 69 Findon 5023	Moana	SA	5169	New System House 1,500 - 2,999 ft	atac_google
72036	Indust Galvanizers Aaron Harland	aharland@ingal.com.au	0417923152	Commercial	05/06/2008 21:45	Po Box 1398, Bibra Lake Wa 6965	Bibra Lake	WA	6163	Replace Current System Industrial 50,000+ ft	atac_google
72062	Jennifer Anderson	sjanderson1@bigpond.com	0434411390	Residential	05/07/2008 00:55	8 Habitat Way	Coomera	QL	4209	New System House 1,500 - 2,999 ft	atac_google
72244	Convenient Junction Harry Singh	harry.singh@aus.fujixerox.com	0434185294	Commercial	05/08/2008 05:35	2/108 Helensvale Rd	Helensvale	QL	4212	Replace Current System Retail Up to 2,499 ft	atac_google
72373	Mooloolaba Ink Les Gadd	info@motelmediterranean.com	0754444499	Commercial	05/08/2008 20:05	197 Brisbane Road Mooloolaba Qld 4557	Mooloolaba	QL	4557	New System Retail Up to 2,499 ft	atac_google
72536	April Waleryszek	waleryszek@optusnet.com	0397432157	Residential	05/09/2008 20:55	75childs Street	Brookfield	VI	3338	New System House Up to 1,499 ft	atac_google
72669	John Clark	medicaltypist@bigpond.com	0754993132	Residential	05/10/2008 19:25	29 St Columbans Court	Beachmere	QL	4510	New System House 1,500 - 2,999 ft	atac_google
72806	Alissia Hitchcock	lissh83@hotmail.com	0405929384	Residential	05/11/2008 20:45	7/168 Princess St	Cotham	VI	3101	New System Apartment Up to 1,499 ft	atac_google
72840	Peter Smith	peter@barbonsmith.com.au	0412136013	Residential	05/12/2008 02:45	Po Box 524	Carlton North	VI	3054	Upgrade Current System House 1,500 - 2,999 ft	atac_google
73017	Robert Mcmillan	robertmcmillan@optusnet.com.au	0383007680	Residential	05/13/2008 01:25	8 Lillian Street Pascoe Vale	Pascoe Vale	VI	3044	New System House Up to 1,499 ft	atac_google
73033	Helen Jeffery	thejeffery4@optusnet.com.au	0410493727	Residential	05/13/2008 04:25	26 Adams Street	Berry Park	NS	2321	New System House 3,000 - 4,999 ft	atac_google
73200	Con Mimilidis	c.mimilidis@alfred.org.au	0408504755	Residential	05/13/2008 23:55	59 Surrey Road	Chapel Street North	VI	3141	Replace Current System House Up to 1,499 ft	atac_google
73205	Janita Preston	c.jpreston@bigpond.com	0880801392	Residential	05/14/2008 01:05	304 Jamieson Street	Broken Hill	NS	2880	New System House 1,500 - 2,999 ft	atac_google
73349	Peter Ree	kkami30@hotmail.com	0405141730	Residential	05/14/2008 18:35	Kenneth St	Lane Cove	NS	2066	Replace Current System House 3,000 - 4,999 ft	atac_google
73391	Cheryl Taylor	ctaylor@aea.com.au	0732774566	Residential	05/14/2008 22:55	285 Algester Road, Algester	Algester	QL	4115	New System House 1,500 - 2,999 ft	atac_google
73402	Vicky Krishnan	v_149@hotmail.com	0433327344	Residential	05/15/2008 00:35	85/159 Hubert Street	Carlisle	WA	6101	New System House 5,000 - 19,999 ft	atac_google
73543	Neil Cesari	fabrineil@hotmail.com	0410097787	Residential	05/15/2008 20:05	51 Bronhill Road	Bedford Road	VI	3135	New System House 1,500 - 2,999 ft	atac_google
73564	Michele Washer	stagpole.daru@bigpond.com	0747715655	Residential	05/15/2008 22:35	4 Cummins Street, Hyde Park , T Ville 4812	Currajong	QL	4812	New System Apartment 3,000 - 4,999 ft	atac_google
73575	Outback Metals Ltd Heidi Smart	hsmart@outbackmetals.com	0294207200	Commercial	05/16/2008 00:15	Po Box 164	Lane Cove	NS	2066	New System Office Up to 2,499 ft	atac_google
73586	Matthew Flowers	mattsxr6@hotmail.com	0418732540	Residential	05/16/2008 02:35	7 Shirley Close	Kuraby	QL	4112	New System House 3,000 - 4,999 ft	atac_google
73888	Brett Bloxham	brett.bloxham@hotmail.com	0424671151	Residential	05/18/2008 00:25	31 Paddington Lane	Alberton	QL	4207	Replace Current System House Up to 1,499 ft	atac_google
73919	Eamon Burke	eamon.burke@leicon.com.au	0438111012	Residential	05/18/2008 06:15	17 Gladstone Street, Moonee Ponds. 3039	Moonee Ponds	VI	3039	New System House Up to 1,499 ft	atac_google
74005	Matt Clinch	matthew.clinch@digicall.com.au	0449844545	Residential	05/18/2008 18:25	100 Winten Drive Glendenning	Colebee	NS	2761	Upgrade Current System House Up to 1,499 ft	atac_google
74058	Milind Desai	milind_77in@indiatimes.com	0390384687	Residential	05/19/2008 01:45	10 Kingston Drive, Taylors Hill	Delahey	VI	3037	New System House 1,500 - 2,999 ft	atac_google
74137	New Venture Hong Nhung Le	bluebigsky9@yahoo.com	0402240371	Commercial	05/19/2008 12:25	Flat 10, 26-28 Emo Road	Caulfield East	VI	3145	New System Restaurant 5,000 - 9,999 ft	atac_google
74196	Mike Hodder	burnley1@bigpond.net.au	0412132582	Residential	05/19/2008 17:25	Po Box 4528	North Parramatta	NS	2151	Replace Current System House Up to 1,499 ft	atac_google
74253	Barb Salgado	lafamilia@iinet.net.au	0293158289	Residential	05/19/2008 22:35	11 Calga Ave, Bronte	Bronte	NS	2024	New System House 1,500 - 2,999 ft	atac_google
74276	Yin Lei	yinzhong_li@yahoo.com.au	0432654256	Residential	05/20/2008 01:45	225 Spring St	Gilberton	VI	3072	New System House Up to 1,499 ft	atac_google
74302	Ian Gilmour	igilmour@au1.ibm.com	0413884731	Residential	05/20/2008 06:45	51 Grove Street Lilyfield 2680	Beelbangera	NS	2680	New System Town House Up to 1,499 ft	atac_google
74493	Lynne Reynolds	lynnereynolds@ozemail.com.au	0393370602	Residential	05/21/2008 07:05	25 Nimmo St	Aberfeldie	VI	3040	Upgrade Current System House Up to 1,499 ft	atac_google
74645	Ozdemir Developments Ismet Ozdemir	ozdemirforklifts@bigpond.com	0296255666	Commercial	05/21/2008 20:05	6 James St Sevenhills	Kings Langley	NS	2147	New System Warehouse Up to 2,499 ft	atac_google
74684	Chris Forth	c.forth@hotmail.com	0401949051	Residential	05/22/2008 00:25	13 Edinburgh Road Seville Grove	Armadale	WA	6112	New System House 1,500 - 2,999 ft	atac_google
74698	Alan Maclean	amac6577@bigpond.net.au	0397595110	Residential	05/22/2008 03:05	83 Langhorne Cres.	Rowville	VI	3178	New System House 1,500 - 2,999 ft	atac_google
74810	Hiteshkumar Raval	hvraval@yahoo.com	0862527534	Residential	05/22/2008 15:15	3 Chelmer Way	Canning Vale	WA	6155	New System House 1,500 - 2,999 ft	atac_google
75284	Fiona Nheu	leng_fiona@hotmail.com	0403703337	Residential	05/25/2008 03:05	8 Applegum Ct	Fountain Gate	VI	3805	New System House Up to 1,499 ft	atac_google
75309	Sylvain Guerinet	sylvain@adam.com.au	0433769728	Residential	05/25/2008 07:35	Po Box 113 , Royal Park,5014	Albert Park	SA	5014	New System House 1,500 - 2,999 ft	atac_google
75393	Stepping Stone Morag Roseby	admin@steppingstoneclubhouse.org.au	0738471058	Commercial	05/25/2008 21:35	Po Box 249	Coorparoo	QL	4151	New System Industrial 5,000 - 9,999 ft	atac_google
75407	Ashley Nagy	ashnagy@gmail.com	0438293358	Residential	05/25/2008 23:35	100 Pacific Hwy	Crows Nest	NS	2065	New System Town House Up to 1,499 ft	atac_google
75422	Tanya Young	waynetanya@yahoo.com.au	0407629023	Residential	05/26/2008 02:55	6 Willis Cove	Australind	WA	6233	New System House 1,500 - 2,999 ft	atac_google
75443	Souvlakihut Con Apostolidis	conapost@souvlakihut.com.au	0417089397	Commercial	05/26/2008 07:35	4a Carnarvon St Silverwater 2128	Boronia Park	NS	2111	New System Other Up to 2,499 ft	atac_google
75527	Healthworx Direct Deb Robotham	healthworx@bigpond.net.au	0387863833	Commercial	05/26/2008 19:35	2/9 National Drive	Hallam	VI	3803	New System Warehouse 2,500 - 4,999 ft	atac_google
75559	Bouverie Centre Penny Wong	penny.wong@latrobe.edu.au	0393855138	Commercial	05/26/2008 22:15	8 Gardiner St	Brunswick	VI	3056	Replace Current System Office Up to 2,499 ft	atac_google
75560	Liz Powell	lizpowell@aapt.net.au	0402159069	Residential	05/26/2008 22:15	2 Waverley Street	Bowen Hills	QL	4006	New System House 1,500 - 2,999 ft	atac_overture
75583	George Biju	george.biju@directit.com.au	0416979587	Residential	05/27/2008 01:45	Pearce Street	Baulkham Hills	NS	2153	New System Town House Up to 1,499 ft	atac_overture
75618	Vas Retsas	vassam350@optusnet.com.au	0408086618	Residential	05/27/2008 08:55	32 Neate Ave	Belair	SA	5052	Replace Current System House 3,000 - 4,999 ft	atac_google
75759	Fiona Lim	flim@nsw.gadens.com.au	0413798178	Residential	05/27/2008 21:05	5 Water Lane	Mosman	NS	2088	New System House 3,000 - 4,999 ft	atac_google
75765	Sarah Mckernan	sarah.mckernan@bendon.com	0394730234	Residential	05/27/2008 21:25	81 Park Road	Glen Iris	VI	3146	Replace Current System House 1,500 - 2,999 ft	atac_google
75770	Edutainment Lauren Gallagher	920472@standrewslutheran.qld.edu.au	0755981015	Commercial	05/27/2008 21:35	16 Albany Avenue	Currumbin	QL	4223	New System Industrial 5,000 - 9,999 ft	atac
75771	Anthony Dzioba	tonydzioba@hotmail.com	0397547751	Residential	05/27/2008 21:35	61 Forest Park Road Upwey	Upwey	VI	3158	New System House 1,500 - 2,999 ft	atac_google
75796	Margaret Moore	margaret_moore@linfox.com	0383783867	Residential	05/28/2008 00:35	60 Centennial Aprk Drive	Craigieburn	VI	3064	New System House Up to 1,499 ft	atac_google
76012	Thendro Pty Ltd Peter Hantzis	peterhantzis@offyatree.com.au	0393577791	Commercial	05/28/2008 23:15	Fact 2 , 16-20 Amcor Way	Campbellfield	VI	3061	New System Retail Up to 2,499 ft	atac_google
76021	Adrian Christian	achristian@tv3.co.nz	0396266534	Residential	05/29/2008 00:35	29 Beacon Vista	Cheltenham	VI	3192	New System House 1,500 - 2,999 ft	atac_google
76023	Ronald Ward	rwa67225@bigpond.net.au	0408122080	Residential	05/29/2008 00:55	3 Balemo St	South Arm	TA	7022	New System House Up to 1,499 ft	atac_google
76026	Alesha Groves	dalabourservices@bigpond.com	0418922078	Residential	05/29/2008 01:05	41 Teal Brook Circle	Armadale	WA	6112	New System House 1,500 - 2,999 ft	atac_google
76033	Karunakaran Shanmugam	s_karuna_2k@yahoo.com	0434402158	Residential	05/29/2008 02:45	20 Flametree Circuit	Cannons Creek	VI	3977	New System House Up to 1,499 ft	atac_overture
76079	Ben Scott	benscott1979@bigpond.com	0700000000	Residential	05/29/2008 10:55	No Mail	Allan	QL	4370	New System House Up to 1,499 ft	atac_google
76088	Roger Low	rlo2676@yahoo.com.au	0422899168	Residential	05/29/2008 11:45	8 Gianatti Ramble	Beckenham	WA	6107	New System House 1,500 - 2,999 ft	atac_google
76137	Laurie Bowman	lbowman@bigpond.net.au	0413140796	Residential	05/29/2008 17:55	Po Box 319, Indooroopilly, Qld 4068	Chelmer	QL	4068	New System House Up to 1,499 ft	atac_google
76167	Shasta Watts	brendanwatts350@hotmail.com	0407747663	Residential	05/29/2008 20:55	114 Lamberth Rd	Browns Plains	QL	4118	New System House Up to 1,499 ft	atac_google
76193	Angel Batiancila	cheeky4somes@yahoo.com.au	0433487515	Residential	05/29/2008 23:25	5 Mitchell St Paralowie	Paralowie	SA	5108	New System House 1,500 - 2,999 ft	atac_overture
76205	Damian Haley	damian.haley@downeredimining.com	0890314228	Residential	05/30/2008 02:05	10 Bilby Rise	Baldivis	WA	6171	New System House 1,500 - 2,999 ft	atac_google
76227	Liz Estevez	taraliz1976@yahoo.com.au	0402236659	Residential	05/30/2008 06:55	Bimbadeen Drive	Loganholme	QL	4129	New System House Up to 1,499 ft	atac_google
76232	Tina Carrazzo	tcarrazzo@sacredoak.melb.catholic.edu.au	0409938196	Residential	05/30/2008 07:35	1/30 Colonel St Clyton	Clayton	VI	3168	New System House 1,500 - 2,999 ft	atac_google
76376	Jonathan Dunn	jonathan.dunn@vicurban.vic.gov.au	0419524933	Residential	05/31/2008 03:15	31 Mathers Avenue	Kew East	VI	3102	Upgrade Current System House 1,500 - 2,999 ft	atac_google
76490	Maria Carew	carew6@bigpond.com	0395219714	Residential	05/31/2008 23:55	7 Forrest Crt Sandringham	Sandringham	VI	3191	New System House 3,000 - 4,999 ft	atac_overture
76600	Global Building Reso Karen Chappell	karen@globalbuildingreosurces.com.au	0433745530	Commercial	06/01/2008 21:05	3/28 Neumann Rd, Capalaba.	Capalaba	QL	4157	New System Office Up to 2,499 ft	atac_google
76609	Tammy Hamley	boothead5@bigpond.com	0393088078	Residential	06/01/2008 21:55	75 The Elms Blvd	Forbes	VI	3764	New System House 3,000 - 4,999 ft	atac_google
76624	Vik Goundar	manju5@optusnet.com.au	0882611984	Residential	06/02/2008 00:15	43 Queensborough Ave	Gilles Plains	SA	5086	New System House 3,000 - 4,999 ft	atac_google
76633	Trevor Taylor	tbelect@tpg.com.au	0417587701	Residential	06/02/2008 03:05	241 Waverley Road,	Caulfield East	VI	3145	New System House Up to 1,499 ft	atac_google
76744	Richard Chand	richarddchand@hotmail.com	0411201851	Residential	06/02/2008 16:35	6 Lillydale Street Baldhills	Bald Hills	QL	4036	New System House 1,500 - 2,999 ft	atac_google
76792	Cecilia Malinis	cmalinis@westpac.com.au	0282542440	Residential	06/02/2008 21:35	2 Stock Farm Ave	Baulkham Hills	NS	2153	Replace Current System House 1,500 - 2,999 ft	atac_google
76800	Victoria Meeking	victoriameeking@bigpond.com	0419193068	Residential	06/02/2008 22:25	131 Lockhart Street	Como	WA	6152	New System House Up to 1,499 ft	atac_google
76821	Michelle Tank	mbennett_oz@hotmail.com	0404958812	Residential	06/03/2008 01:15	33 Belvoir Crescent	Anketell	WA	6167	New System House 3,000 - 4,999 ft	atac_google
76826	Beck Kluppels	klupper@bp.com	0893550724	Residential	06/03/2008 02:15	Po Box 1716	East Victoria Park	WA	6981	Replace Current System House 1,500 - 2,999 ft	atac_google
76844	Jason Wilde	jasonwilde7@hotmail.com	0410685919	Residential	06/03/2008 06:35	Sunshine Blvd	Broadbeach	QL	4218	New System  Up to 1,499 ft	atac_google
76985	Michael Craft	michaelpro@optusnet.com.au	0410504753	Residential	06/03/2008 21:55	Po Box 257	Arndell Park	NS	2148	Replace Current System House 1,500 - 2,999 ft	atac_google
77015	Lily Troupe	jc4me@velocitynet.com.au	0261661879	Residential	06/04/2008 02:35	46 Ada Baker Street, Forde	Amaroo	AC	2914	New System House 1,500 - 2,999 ft	atac_google
77034	Tom Gilchrist	tomgilchrist@optusnet.com.au	0246287390	Residential	06/04/2008 06:55	106 Queen St	Currans Hill	NS	2567	New System House 1,500 - 2,999 ft	atac_google
77052	Samson Fish Seafoor Sam Tran	samsonfishseafood@yahoo.com.au	0405181888	Commercial	06/04/2008 10:05	8/152 Shore Street West Cleveland	Cleveland	QL	4163	New System Retail Up to 2,499 ft	atac_google
77148	Gordon Park	gpark@med.usyd.edu.au	0410481007	Residential	06/04/2008 21:15	14 Inkerman St, Mosman	Mosman	NS	2088	New System House 3,000 - 4,999 ft	atac_google
77159	South Australian Row Mark Howells	mhowells@rowingsa.asn.au	0882423288	Commercial	06/04/2008 22:25	100 Military Rd West Lakes Shores	West Lakes Shore	SA	5020	New System Warehouse 10,000 - 49,999 ft	atac_google
77173	Jamie Smithson	jsmithson54@hotmail.com	0401691213	Residential	06/05/2008 00:55	1/30-32 Docker Street	Brighton Road	VI	3184	New System Apartment Up to 1,499 ft	atac_google
77178	Ian Hord	ian@hord.com	0394827937	Residential	06/05/2008 01:05	1/42 King St	Clifton Hill	VI	3068	Upgrade Current System Town House 1,500 - 2,999 ft	atac_google
77293	Damian Haley	donna_haley73@yahoo.com	0404409885	Residential	06/05/2008 18:45	10 Bilby Rise	Baldivis	WA	6171	New System House 1,500 - 2,999 ft	atac_google
77306	Allan Lo Proto	allan.loproto@ing.com.au	0416272390	Residential	06/05/2008 20:35	162 Pacific Palms Circuit	Cecil Hills	NSW	2171	New System House 3,000 - 4,999 ft	atac_google
77308	Santoshi Nagaonkar	drsantoshi@email.com	0409319300	Residential	06/05/2008 20:45	23, John Armstrong Close	Black Head	NSW	2430	New System House 3,000 - 4,999 ft	atac_google
77352	Doug Allen	na@aa.bbb.cc	0418432512	Residential	06/06/2008 04:05	Here And There	Airds	NSW	2560	Upgrade Current System House Up to 1,499 ft	atac_overture
77363	Maria Edser	hazeleyes@live.com.au	0419895746	Residential	06/06/2008 06:45	4 Ince Place	Kurunjang	VIC	3337	New System House Up to 1,499 ft	atac_google
77433	Yul Pereira	yulp@tpg.com.au	0292726622	Residential	06/06/2008 16:15	5 Dan Crescent	Castle Hill	NSW	2154	New System House 1,500 - 2,999 ft	atac_google
77501	Paul Howe	phowe131@yahoo.com.au	0411047811	Residential	06/07/2008 02:45	14 Green Hills Dr	Beaumont Hills	NSW	2155	Upgrade Current System House Up to 1,499 ft	atac_google
77630	David Simpson David Simpson	david@100content.com.au	0419230666	Residential	06/08/2008 01:25	5 Bell Street	Auburn South	VIC	3122	New System House Up to 1,499 ft	atac_google
77761	Theo Freriks	theo@freriksfamily.com	0409010540	Residential	06/09/2008 00:25	Po Box 10254, Adelaide Street	Brisbane	QLD	4000	Replace Current System House Up to 1,499 ft	atac_overture
77787	Pamela Le Clerc	pamleclerc@hotmail.com	0430051909	Residential	06/09/2008 05:55	7 Marine Place Seaford Rise	Moana	SA	5169	New System House Up to 1,499 ft	atac_google
77796	Peter Ball	pball@bigpond.net.au	0894024531	Residential	06/09/2008 07:25	12 Atoll Court Mullaloo	Beldon	WA	6027	New System House Up to 1,499 ft	atac_google
77887	Zeljko Proksa	proksa@optusnet.com.au	0393070645	Residential	06/09/2008 17:15	3 Cooks Way Taylors Hill	Delahey	VIC	3037	New System House 1,500 - 2,999 ft	atac_google
77893	Helen Willimott	helen.willimott@health.gov.au	0262898395	Residential	06/09/2008 18:55	P O Box 1357	Tuggeranong Dc	ACT	2901	Replace Current System House 1,500 - 2,999 ft	atac_google
77912	Damian Haley	donna_haley73@yahoo.com	0863640405	Residential	06/09/2008 20:55	10 Bilby Rise	Baldivis	WA	6171	New System House 1,500 - 2,999 ft	atac_google
77926	Susan Batterham	cbatters@bigpond.net.au	0895863352	Residential	06/09/2008 23:15	29 Grasshill Grange	Coodanup	WA	6210	Replace Current System House 1,500 - 2,999 ft	atac_google
77933	Giuseppe Martin	pjm_architects@yahoo.com	0448965685	Residential	06/09/2008 23:45	Po Box 6037 Gosford West	Bucketty	NSW	2250	New System House 1,500 - 2,999 ft	atac_google
77972	Catherine V Dahl	cvdahl@bigpond.com	0262584355	Residential	06/10/2008 07:55	38 Jauncey Court	Charnwood	ACT	2615	New System House Up to 1,499 ft	atac_google
77987	Ritesh Baral	riteshbaral@gmail.com	0405355174	Residential	06/10/2008 09:35	4/63 Jones St	Cambridge Gardens	NSW	2747	New System Town House Up to 1,499 ft	atac_google
78063	Kinetic Cnc Pty Ltd Wendy  Bruce Kinnea	wendyandmonty@hotmail.com	0417641590	Commercial	06/10/2008 18:55	Lawnton Pocket Rd. Lawnton	Bray Park	QLD	4500	New System Industrial Up to 2,499 ft	atac
78091	Belinda Lindsay	sp20hotchef13@hotmail.com.au	0415153046	Residential	06/10/2008 22:25	3/42 Florence Street Hornsby	Asquith	NSW	2077	New System  Up to 1,499 ft	atac_google
78100	Cecile Lopez-brown	x4browns@bigpond.net.au	0393812494	Residential	06/11/2008 00:05	8 Louisa St Brunswick	Brunswick	VIC	3056	New System House Up to 1,499 ft	atac_google
78105	Extrastaff Daniel Jackson	dan.jackson@extrastaff.com.au	0418833920	Commercial	06/11/2008 00:35	Unit 3 268 Ipswich Rd	Annerley	QLD	4103	New System Office Up to 2,499 ft	atac_google
78247	Phillip Makrid	pd.makrid@bigpond.com	0883396106	Residential	06/11/2008 20:35	4 Woodbury Rd Crafers	Cleland	SA	5152	New System House 1,500 - 2,999 ft	atac_google
78284	New Com Fin Pty Ltd Chris Arnold	reception@newcomfin.com.au	0249221000	Commercial	06/12/2008 00:15	Po Box 688, The Junction	Merewether	NSW	2291	New System Office Up to 2,499 ft	atac_google
78313	David Meredith	davidmeredith@bostreasury.com	0404427725	Residential	06/12/2008 05:25	85a Morts Rd	Mortdale	NSW	2223	New System Town House Up to 1,499 ft	atac_google
78456	Jason Weink	jason_big@hornmail.com	0358298675	Residential	06/12/2008 23:15	50 Pinkerton St	Arcadia	VIC	3631	New System House Up to 1,499 ft	atac_google
78467	Jjs Long Day Care Karen Glen	jjslongdaycare@bigpond.com	0298329055	Commercial	06/13/2008 01:15	Po Box 8085, Werrington County	Cambridge Gardens	NSW	2747	Replace Current System Other Up to 2,499 ft	atac_google
78468	Kerri Burden	onedagirl@bigpond.com	0404001804	Residential	06/13/2008 01:35	1 Woodgate Street Farrer	Farrer	ACT	2607	New System House Up to 1,499 ft	atac_google
78495	Diana Onciul	o_deedee2000@yahoo.com	0424439093	Residential	06/13/2008 07:45	223 Lakeside Avenue, Springfield Lakes	Augustine Heights	QLD	4300	New System House 1,500 - 2,999 ft	atac_google
78603	Nora Van Keulen	nora_rose@hotmail.com	0242231529	Residential	06/13/2008 22:25	13 Covington Green	Avondale	NSW	2530	New System House 1,500 - 2,999 ft	atac_google
78727	Deborah Hardinge	mhdjhardinge@gmail.com	0397829038	Residential	06/14/2008 18:15	3 Delatite Way	Cannons Creek	VIC	3977	New System House 1,500 - 2,999 ft	atac_google
78801	John Tsiagalos	jtsiagalos@gmail.com	0438008111	Residential	06/15/2008 08:45	43 Surrey Rd Dandenong North	Bangholme	VIC	3175	New System House 1,500 - 2,999 ft	atac_google
78868	Fiona Atkins	pjfa8@optusnet.com.au	0249512722	Residential	06/15/2008 18:05	61 Thomas Street	Birmingham Gardens	NSW	2287	New System House Up to 1,499 ft	atac_overture
78902	Kelly Woodford	merwoo@aapt.net.au	0409354364	Residential	06/15/2008 22:25	9 Richardson Avenue	Sunbury	VIC	3429	New System House Up to 1,499 ft	atac_google
78912	Ajit Arudselvam	ajit.arudselvam@aar.com.au	0292304563	Residential	06/15/2008 23:25	16 Mala Crescent	Arndell Park	NSW	2148	New System House 1,500 - 2,999 ft	atac_google
78956	Macarthur Adventist Bob Pearce	bpearce@macarthur.adventist.edu.au	0296053200	Commercial	06/16/2008 07:35	12 Victoria Rd Macquarie Fields	Glenquarie	NSW	2564	Replace Current System Other 10,000 - 49,999 ft	atac
79083	Cristina Ionescu	rubens24@bigpond.com	0434575678	Residential	06/16/2008 21:05	1 Quail Court	Fountain Gate	VIC	3805	New System House 1,500 - 2,999 ft	atac_google
79092	Katrina Downes	kdcommunications@hotmail.com	0438940364	Residential	06/16/2008 22:05	76 Broome St, Cottesloe	Cottesloe	WA	6011	New System House 1,500 - 2,999 ft	atac_google
79108	Elizabeth Alexander	klizent@hotmail.com	0392724224	Residential	06/16/2008 23:55	L4, 969 Burke Rd	Camberwell	VIC	3124	New System  Up to 1,499 ft	atac_google
79110	Andrew Coventry	andrewcoventry@telstra.com	0408088068	Residential	06/16/2008 23:55	12 Hesleden Street Essendon	Moonee Ponds	VIC	3039	Upgrade Current System House 1,500 - 2,999 ft	atac_google
79131	Sarah Campbell	sarah@mountgambier.net	0887251202	Residential	06/17/2008 03:35	Po Box 2574	Mount Gambier	SA	5290	New System House 1,500 - 2,999 ft	atac_google
79144	Joanne Bowen	jbowen29@hotmail.com	0249331514	Residential	06/17/2008 06:15	3 Karleym Court	Ashtonfield	NSW	2323	New System House 1,500 - 2,999 ft	atac_google
79305	Xosize Scott Hollow	scott@xosize.com.au	0419519114	Commercial	06/17/2008 22:35	282 Centre Rd	Bentleigh	VIC	3204	New System Retail Up to 2,499 ft	atac_google
79306	Darren Oloughlin	locky.au@optusnet.com.au	0413708434	Residential	06/17/2008 22:45	250 North Road	Langwarrin	VIC	3910	New System House 5,000 - 19,999 ft	atac_google
79311	Cassandra Grech	cgrech@idmshopfitters.com.au	0405110095	Residential	06/17/2008 23:05	Po Box 5248	Redcliffe	QLD	4020	New System House 1,500 - 2,999 ft	atac_overture
79363	Melissa Muntz	soniaallen@optusnet.com.au	0404882141	Residential	06/18/2008 08:45	37 Maritana Road Kallaroo	Craigie	WA	6025	New System House 3,000 - 4,999 ft	atac_google
79463	Marcella Veng	marcella.s.veng@aexp.com	0424471369	Residential	06/18/2008 19:55	14 Byrd St Canley Heights	Cabramatta	NSW	2166	New System House 1,500 - 2,999 ft	atac_google
79484	Arntech Pty Ltd James Arnold	calibrelab@optusnet.com.au	0403883322	Commercial	06/18/2008 21:55	3/4 Bormar Drive Pakenham	Pakenham	VIC	3810	New System Industrial Up to 2,499 ft	atac_google
79631	Booth St Pharmacy John Conte	john-conte@hotmail.com	0296602307	Commercial	06/19/2008 18:25	35 Ross St	Forest Lodge	NSW	2037	New System Retail Up to 2,499 ft	atac_google
79663	Ken Chia	ken.chia@bigpond.com	0416191461	Residential	06/19/2008 22:55	59 Honeywell Boulevard	Balga	WA	6061	New System House Up to 1,499 ft	atac_overture
79683	Philip Carr	pcarr@iinet.net.au	0417923944	Residential	06/20/2008 02:55	12 Cardiff Place	Safety Bay	WA	6169	New System House 1,500 - 2,999 ft	atac_google
79704	Nadia Lim	sin2x@hotmail.com	0410580105	Residential	06/20/2008 06:35	2/11 Wenton Road	Holsworthy	NSW	2173	New System Town House 1,500 - 2,999 ft	atac_overture
79793	Alyona Chirinos	alyonachirinos@yahoo.com	7185180796	Residential	06/20/2008 17:39	3963 E Melsor	Dawes Point	NSW	2000	New System House 3,000 - 4,999 ft	atac_sensis
79870	Nellie Kerrison	nm.kerrison@bigpond.com	0395980996	Residential	06/21/2008 06:35	81 Bay Rd, Sandringham	Sandringham	VIC	3191	New System House 1,500 - 2,999 ft	atac_overture
79984	Jeanneth Arriaga	jeanneth.x.arriaga@jpmorgan.com	0416267328	Residential	06/22/2008 01:35	64 Macartney Cr	Bidwill	NSW	2770	New System House 1,500 - 2,999 ft	atac_google
79997	Patricia Pratt	fredp@tsn.cc	0265647879	Residential	06/22/2008 03:35	16 River St	Argents Hill	NSW	2449	Replace Current System House Up to 1,499 ft	atac_google
80015	Dennis Liew	ysliew4912@optusnet.com.au	0892849940	Residential	06/22/2008 07:35	20 Kirwan Street, Floreat	Floreat	WA	6014	New System House 1,500 - 2,999 ft	atac_overture
80111	Sant Paws Pet Servic Kath Anderson	kathleen.anderson@santapaws.com.au	0417031097	Commercial	06/22/2008 21:15	166 Lygon Street   E. Brunswick	Brunswick East	VIC	3057	New System Retail Up to 2,499 ft	atac_google
80113	Donna Pullen	donnapull@hotmail.com	0395547381	Residential	06/22/2008 21:25	40 Dryden Concourse Mooroolbark	Mooroolbark	VIC	3138	New System House Up to 1,499 ft	atac_google
80133	Thomas Khoo	tomkhoo63@yahoo.com	0431557120	Residential	06/23/2008 00:45	406/102 Camberwell Road	Auburn	VIC	3123	New System House 1,500 - 2,999 ft	atac_overture
80154	Brad Kerr	bkerr@peak3.com.au	0400662420	Residential	06/23/2008 04:45	67 Esperance Dr	Albion Park	NSW	2527	New System House 1,500 - 2,999 ft	atac_google
80159	Stuart Taylor	stu_102002@yahoo.co.uk	0894077181	Residential	06/23/2008 06:05	5 Rossiters Cove	Clarkson	WA	6030	New System House 3,000 - 4,999 ft	atac_overture
80262	Alyona Chirinos	alyona@yahoo.com	7185180796	Residential	06/23/2008 17:05	576 Hjhkjk	Barton	ACT	2600	Upgrade Current System House 5,000 - 19,999 ft	atac_sensis
80274	Louise Stevenson	louise.stevenson@canberra.edu.au	0262015433	Residential	06/23/2008 18:05	8 Judith Wright Street	Franklin	ACT	2913	New System House 1,500 - 2,999 ft	atac_google
80333	Yvonne Smith	ysmith@melior.com.au	0883394950	Residential	06/24/2008 01:15	Po Box 29	Cleland	SA	5152	New System House 1,500 - 2,999 ft	atac_google
80346	Ellie Richardson	ellie.richardson@hotmail.com	0434526130	Residential	06/24/2008 03:35	Po Box 516	Bundoora	VIC	3083	New System House Up to 1,499 ft	atac_google
80351	Jill Meili	lamanplugger@yahoo.com	0419670317	Residential	06/24/2008 04:45	Lot 67 Atc Hall Rd Childers	Abington	QLD	4660	New System House Up to 1,499 ft	atac_google
80487	Christine Olinowski	christine.olinowski@au.nufarm.com	0397436710	Residential	06/24/2008 20:15	7 Gregory Place	Kurunjang	VIC	3337	New System House Up to 1,499 ft	atac_google
80505	Susan Ramrakha	ssramrakha@iprimus.com.au	0297987514	Residential	06/24/2008 22:55	2 Forrest St. Haberfield	Haberfield	NSW	2045	New System House 1,500 - 2,999 ft	atac_google
80523	Jamie Govan	govlawn@bigpond.com	0421004527	Residential	06/25/2008 01:35	Park Ridge Rd Park Ridge	Munruben	QLD	4125	New System House Up to 1,499 ft	atac_google
80528	Adam Butler	adlec@optusnet.com.au	0402641790	Residential	06/25/2008 02:15	31 Halewood Cl Jewells	Belmont	NSW	2280	New System House Up to 1,499 ft	atac_google
80542	Jen Woodland	jjkewood@bigpond.net.au	0408886850	Residential	06/25/2008 06:45	6 Norning Cloud Vale Willetton	Canning Vale	WA	6155	New System House 1,500 - 2,999 ft	atac_google
80550	Dom Nap	tigernik@hotmail.com	0409297722	Residential	06/25/2008 07:55	103 Tamarisk Drive Gabbadah	Caraban	WA	6041	New System House 1,500 - 2,999 ft	atac_google
80652	Biz Oz Finance Shirley Peacock	shirley@bizoz.net.au	0754837866	Commercial	06/25/2008 18:45	20 Mary Street	Amamoor	QLD	4570	New System Retail 2,500 - 4,999 ft	atac_google
80669	Lynn Surfield	lynn.surfield@raywhite.com	0402477033	Residential	06/25/2008 20:25	Cnr Fostres Rd & Folland Ave	Clearview	SA	5085	New System Town House 1,500 - 2,999 ft	atac_google
80676	Editor Grouo Danielle Black	dblack@editorgroup.com	0289129500	Commercial	06/25/2008 20:55	Level 5/249 Pitt Street	Dawes Point	NSW	2000	New System Office 2,500 - 4,999 ft	atac_google
80677	Terry Meehan	terry.meehan@defence.gov.au	0425834981	Residential	06/25/2008 20:55	Lot 487 Black Dog Drive Melton	Kurunjang	VIC	3337	New System House 1,500 - 2,999 ft	atac_google
80698	Sc Logistics Tania Vicary	sclkss@bigopnd.net.au	0738651733	Commercial	06/25/2008 23:55	P.o Box 443	Banyo	QLD	4014	New System Warehouse 10,000 - 49,999 ft	atac_google
80709	Nikki Young	youngnl73@yahoo.com	0425786503	Residential	06/26/2008 01:45	7 Solomon Court	Sunbury	VIC	3429	Replace Current System House Up to 1,499 ft	atac_google
80834	Na Cole Spender	coles@twenty20.com.au	6140731506	Commercial	06/26/2008 20:05	3004/70 Lorimer Street	Docklands	VIC	3008	New System Warehouse Up to 2,499 ft	atac_google
80865	Benher Signs Jacqui Whyte	accounts@benhersigns.com.au	0359404990	Commercial	06/26/2008 23:45	10 Bate Close	Pakenham	VIC	3810	New System Warehouse 10,000 - 49,999 ft	atac_google
81118	Grant Turton	grant.turton@voith.com	0412227923	Residential	06/28/2008 16:05	Po Box 341	Currans Hill	NSW	2567	Replace Current System House Up to 1,499 ft	atac_google
81182	Michael Foo	michaelf@vipac.com.au	0433153831	Residential	06/29/2008 02:35	1a Oldsmobile Terrace, Dudley Park	Croydon	SA	5008	New System House 1,500 - 2,999 ft	atac_google
81196	Ranjeeta Roshan	rro27707@bigpond.net.au	0734916171	Residential	06/29/2008 05:35	1 Wagner Rd Murrumba Downs	Dakabin	QLD	4503	New System House 1,500 - 2,999 ft	atac_overture
81300	Drummond Golf Andrew Pickles	andrew.pickles@drummondgolf.com	0439331926	Commercial	06/29/2008 21:25	Unit B3 Harvey Norman Centre Tasman Hwy. Cambridge	Acton Park	TAS	7170	New System Retail 5,000 - 9,999 ft	atac_overture
81304	Yuvnesh Dutt Bali	yuvnesh@yahoo.com	0383907284	Residential	06/29/2008 21:45	1 Honour Lane	Burnside	VIC	3023	New System House 3,000 - 4,999 ft	atac_google
81317	Chris Wheeler	chris_milo_99@yahoo.com.au	0402140338	Residential	06/29/2008 23:45	10 Lyndford Court	Albanvale	VIC	3021	New System House 1,500 - 2,999 ft	atac_google
81468	Mclay Industries Bob Maloney	bb_mlny@yahoo.com.au	0893569351	Commercial	06/30/2008 20:45	101 Sustainable Drive   Bibra Lake	Bibra Lake	WA	6163	New System Warehouse 5,000 - 9,999 ft	atac_google
81470	Natalie Zadow	natools81@hotmail.com	0894185088	Residential	06/30/2008 21:05	3 Mcleod Tce	Baldivis	WA	6171	New System House Up to 1,499 ft	atac_google
81472	Jeannette Borg	jeannette_b@mac.com	6104098703	Residential	06/30/2008 21:25	Upper Sturt Rd	Blackwood	SA	5051	New System House 1,500 - 2,999 ft	atac_google
81505	Andy Evans	andy-evans@bigpond.com	0414260020	Residential	07/01/2008 01:45	105 Hilltop Rd	Avalon	NSW	2107	Upgrade Current System House Up to 1,499 ft	atac_google
81511	Ashley Bachmann	kbachmann8@bigpond.com	0409067980	Residential	07/01/2008 02:55	17 Cornwall Close Heritage Park	Browns Plains	QLD	4118	New System House 1,500 - 2,999 ft	atac_google
81524	Julian Holland	fightingfarrier@optusnet.com.au	0403067877	Residential	07/01/2008 05:15	95 Cadles Rd ,  Carrum Downs	Carrum Downs	VIC	3201	New System House Up to 1,499 ft	atac_google
81679	Jimmy Yousif	hannibalsrestaurant@hotmail.com	0297265538	Residential	07/01/2008 23:15	5a Margrat St	Fairfield	NSW	2165	New System Town House Up to 1,499 ft	atac_google
81680	Mike Warmington	mwarmington@customfleet.com.au	0394741561	Residential	07/01/2008 23:55	1 E Kew	Cotham	VIC	3101	New System House Up to 1,499 ft	atac_google
81685	Brenda Not Given	bren.d1@bigpond.com.au	0387869570	Residential	07/02/2008 00:15	Not Given	Berwick	VIC	3806	New System House 3,000 - 4,999 ft	atac_google
81687	Courtney Dore	courtney_dore@hotmail.com	0413254989	Residential	07/02/2008 01:05	72/106 Giles Street, Kingston	Causeway	ACT	2604	New System Apartment Up to 1,499 ft	atac_google
81705	Lynne Lardner	keilyn@iinet.net.au	0894951564	Residential	07/02/2008 04:45	8  Clenham Way  Kelmscott	Ashendon	WA	6111	New System House Up to 1,499 ft	atac_overture
81804	Gizelle Le Roux	gizellelr@hotmail.com	0401538393	Residential	07/02/2008 17:45	Po Box 4181 Marayong Nsw 2148	Acacia Gardens	NSW	2763	New System House 3,000 - 4,999 ft	atac_google
81860	Amethon Solutions Michael Stone	michael.stone@amethon.com	0299595140	Commercial	07/03/2008 01:05	Suite 302, 88 Walker St	Hmas Platypus	NSW	2060	New System Office Up to 2,499 ft	atac_google
81893	Sarah Vandermark	svandermark@grapevine.com.au	0262487364	Residential	07/03/2008 07:25	20 Calvert St Ainslie	Ainslie	ACT	2602	New System House 1,500 - 2,999 ft	atac_google
