Quote ID	Name	Email	Phone	Quote Type	Date Received	Address	City	State Code	Zip	Comments	Source
80133	Thomas Khoo	tomkhoo63@yahoo.com	0431557120	Residential	06/23/2008 00:45	406/102 Camberwell Road	Auburn	VIC	3123	New System House 1,500 - 2,999 ft	atac_overture
80154	Brad Kerr	bkerr@peak3.com.au	0400662420	Residential	06/23/2008 04:45	67 Esperance Dr	Albion Park	NSW	2527	New System House 1,500 - 2,999 ft	atac_google
80159	Stuart Taylor	stu_102002@yahoo.co.uk	0894077181	Residential	06/23/2008 06:05	5 Rossiters Cove	Clarkson	WA	6030	New System House 3,000 - 4,999 ft	atac_overture
80262	Alyona Chirinos	alyona@yahoo.com	7185180796	Residential	06/23/2008 17:05	576 Hjhkjk	Barton	ACT	2600	Upgrade Current System House 5,000 - 19,999 ft	atac_sensis
80274	Louise Stevenson	louise.stevenson@canberra.edu.au	0262015433	Residential	06/23/2008 18:05	8 Judith Wright Street	Franklin	ACT	2913	New System House 1,500 - 2,999 ft	atac_google
80333	Yvonne Smith	ysmith@melior.com.au	0883394950	Residential	06/24/2008 01:15	Po Box 29	Cleland	SA	5152	New System House 1,500 - 2,999 ft	atac_google
80346	Ellie Richardson	ellie.richardson@hotmail.com	0434526130	Residential	06/24/2008 03:35	Po Box 516	Bundoora	VIC	3083	New System House Up to 1,499 ft	atac_google
80351	Jill Meili	lamanplugger@yahoo.com	0419670317	Residential	06/24/2008 04:45	Lot 67 Atc Hall Rd Childers	Abington	QLD	4660	New System House Up to 1,499 ft	atac_google
80487	Christine Olinowski	christine.olinowski@au.nufarm.com	0397436710	Residential	06/24/2008 20:15	7 Gregory Place	Kurunjang	VIC	3337	New System House Up to 1,499 ft	atac_google
80505	Susan Ramrakha	ssramrakha@iprimus.com.au	0297987514	Residential	06/24/2008 22:55	2 Forrest St. Haberfield	Haberfield	NSW	2045	New System House 1,500 - 2,999 ft	atac_google
80523	Jamie Govan	govlawn@bigpond.com	0421004527	Residential	06/25/2008 01:35	Park Ridge Rd Park Ridge	Munruben	QLD	4125	New System House Up to 1,499 ft	atac_google
80528	Adam Butler	adlec@optusnet.com.au	0402641790	Residential	06/25/2008 02:15	31 Halewood Cl Jewells	Belmont	NSW	2280	New System House Up to 1,499 ft	atac_google
80542	Jen Woodland	jjkewood@bigpond.net.au	0408886850	Residential	06/25/2008 06:45	6 Norning Cloud Vale Willetton	Canning Vale	WA	6155	New System House 1,500 - 2,999 ft	atac_google
80550	Dom Nap	tigernik@hotmail.com	0409297722	Residential	06/25/2008 07:55	103 Tamarisk Drive Gabbadah	Caraban	WA	6041	New System House 1,500 - 2,999 ft	atac_google
80652	Biz Oz Finance Shirley Peacock	shirley@bizoz.net.au	0754837866	Commercial	06/25/2008 18:45	20 Mary Street	Amamoor	QLD	4570	New System Retail 2,500 - 4,999 ft	atac_google
80669	Lynn Surfield	lynn.surfield@raywhite.com	0402477033	Residential	06/25/2008 20:25	Cnr Fostres Rd & Folland Ave	Clearview	SA	5085	New System Town House 1,500 - 2,999 ft	atac_google
80676	Editor Grouo Danielle Black	dblack@editorgroup.com	0289129500	Commercial	06/25/2008 20:55	Level 5/249 Pitt Street	Dawes Point	NSW	2000	New System Office 2,500 - 4,999 ft	atac_google
80677	Terry Meehan	terry.meehan@defence.gov.au	0425834981	Residential	06/25/2008 20:55	Lot 487 Black Dog Drive Melton	Kurunjang	VIC	3337	New System House 1,500 - 2,999 ft	atac_google
80698	Sc Logistics Tania Vicary	sclkss@bigopnd.net.au	0738651733	Commercial	06/25/2008 23:55	P.o Box 443	Banyo	QLD	4014	New System Warehouse 10,000 - 49,999 ft	atac_google
80709	Nikki Young	youngnl73@yahoo.com	0425786503	Residential	06/26/2008 01:45	7 Solomon Court	Sunbury	VIC	3429	Replace Current System House Up to 1,499 ft	atac_google
80834	Na Cole Spender	coles@twenty20.com.au	6140731506	Commercial	06/26/2008 20:05	3004/70 Lorimer Street	Docklands	VIC	3008	New System Warehouse Up to 2,499 ft	atac_google
80865	Benher Signs Jacqui Whyte	accounts@benhersigns.com.au	0359404990	Commercial	06/26/2008 23:45	10 Bate Close	Pakenham	VIC	3810	New System Warehouse 10,000 - 49,999 ft	atac_google
81118	Grant Turton	grant.turton@voith.com	0412227923	Residential	06/28/2008 16:05	Po Box 341	Currans Hill	NSW	2567	Replace Current System House Up to 1,499 ft	atac_google
81182	Michael Foo	michaelf@vipac.com.au	0433153831	Residential	06/29/2008 02:35	1a Oldsmobile Terrace, Dudley Park	Croydon	SA	5008	New System House 1,500 - 2,999 ft	atac_google
81196	Ranjeeta Roshan	rro27707@bigpond.net.au	0734916171	Residential	06/29/2008 05:35	1 Wagner Rd Murrumba Downs	Dakabin	QLD	4503	New System House 1,500 - 2,999 ft	atac_overture
81300	Drummond Golf Andrew Pickles	andrew.pickles@drummondgolf.com	0439331926	Commercial	06/29/2008 21:25	Unit B3 Harvey Norman Centre Tasman Hwy. Cambridge	Acton Park	TAS	7170	New System Retail 5,000 - 9,999 ft	atac_overture
81304	Yuvnesh Dutt Bali	yuvnesh@yahoo.com	0383907284	Residential	06/29/2008 21:45	1 Honour Lane	Burnside	VIC	3023	New System House 3,000 - 4,999 ft	atac_google
81317	Chris Wheeler	chris_milo_99@yahoo.com.au	0402140338	Residential	06/29/2008 23:45	10 Lyndford Court	Albanvale	VIC	3021	New System House 1,500 - 2,999 ft	atac_google
81468	Mclay Industries Bob Maloney	bb_mlny@yahoo.com.au	0893569351	Commercial	06/30/2008 20:45	101 Sustainable Drive   Bibra Lake	Bibra Lake	WA	6163	New System Warehouse 5,000 - 9,999 ft	atac_google
81470	Natalie Zadow	natools81@hotmail.com	0894185088	Residential	06/30/2008 21:05	3 Mcleod Tce	Baldivis	WA	6171	New System House Up to 1,499 ft	atac_google
81472	Jeannette Borg	jeannette_b@mac.com	6104098703	Residential	06/30/2008 21:25	Upper Sturt Rd	Blackwood	SA	5051	New System House 1,500 - 2,999 ft	atac_google
