Quote ID	Name	Email	Phone	Quote Type	Date Received	Address	City	State Code	Zip	Comments	Source
70535	Aslan Inc Carrie Gray	carrie@aslanleather.com	4163060462	Commercial	04/28/2008 09:32	Po Box 102 Stn B	Toronto	ON	M5T 2T3	New System Other Up to 2,499 ft	ctac_google
70542	Kevin Allan	kevincrallan@gmail.com	9055994144	Residential	04/28/2008 10:01	136 Springhurst Ave, # 8	Toronto	ON	M6K 1C1	New System Condo Up to 1,499 ft	ctac_google
70557	Jensen Tire Andrew Hill	jensentireah@bellnet.ca	9053389919	Commercial	04/28/2008 11:01	928 Winston Churchill Blvd	Oakville	ON	L6J 7X5	Replace Current System Warehouse 10,000 - 49,999 ft	ctac_google
70578	James Page	james.page@cibc.com	4169805144	Residential	04/28/2008 12:32	2922 Termini Terrace	Mississauga	ON	L5M 5S4	New System House Up to 1,499 ft	ctac_google
70581	Tracy Thomson	tracythomson@rogers.com	4168694544	Residential	04/28/2008 12:48	2457 Mainroyal St	Mississauga	ON	L5L 1E1	New System House Up to 1,499 ft	ctac_google
70601	Dana Liang	dliang@rogers.com	6472813262	Residential	04/28/2008 14:32	14 Balding Ct.	Toronto	ON	M2P 1Y7	Upgrade Current System House 3,000 - 4,999 ft	ctac_google
70603	Armario Monica Swaneck	swaneck@rogers.com	9057616004	Commercial	04/28/2008 14:32	255 Bass Pro Mills Drive	Vaughn	ON	L4K 0A2	New System Retail Up to 2,499 ft	ctac_google
70620	James Lane	jamesfromgta@gmail.com	4166770565	Residential	04/28/2008 15:32	14 Talwood Dr.	Toronto	ON	M3B 2P3	New System House Up to 1,499 ft	ctac_google
70680	Raj Paramarajah	arrul89@yahoo.ca	5196572473	Residential	04/28/2008 22:16	800 Wonderland Rd S	London	ON	N6K 4L8	New System House 1,500 - 2,999 ft	ctac_google
70799	Domistyle Inc Vanessa Lee	vanessa@domistylegifts.com	4168068409	Commercial	04/29/2008 14:48	688 Richmond St. W	Toronto	ON	M6J 1C5	New System Warehouse Up to 2,499 ft	ctac_google
70801	Jacques Berard	jberardn408@rogers.com	6139563310	Residential	04/29/2008 15:01	127 Dalhousie Street	Ottawa	ON	K1N 7C2	New System Town House Up to 1,499 ft	ctac_google
70824	Kyle Pearce	kylepearce@sympatico.ca	5198180078	Residential	04/29/2008 17:16	843 Southwood Drive	Belle River	ON	N0R 1A0	New System House 1,500 - 2,999 ft	ctac_google
70990	Maribeth Knezev	maribeth.k@netzero.net	4169999999	Residential	04/30/2008 17:01	266  Riverdale  Ave	Toronto	ON	M4K 1C6	New System House Up to 1,499 ft	ctac_google
70997	Sherri Lange	kodaisl@rogers.com	4165675115	Residential	04/30/2008 17:48	22 Avonmore Square	Toronto	ON	M1E 1C9	New System House 1,500 - 2,999 ft	ctac_google
